Project 1: Exploratory Data Analysis
…
## # A tibble: 8 x 6
##   CricketNumber  Temp ChirpsPerHour Rain  JumpPerHour PeopleWalkingBy
##           <dbl> <dbl>         <dbl> <chr>       <dbl>           <dbl>
## 1             1  14            64   Y            156.             103
## 2             4  14.5          65.5 Y            153.              54
## 3             7  14.8          69.6 Y            144.               5
## 4            10  15.2          71   Y            141.              12
## 5            12  15.4          69.4 Y            144.              90
## 6            17  16.2          68.4 Y            146.               1
## 7            31  17.5          82.6 Y            121.              95
## 8            40  18.4          84.3 Y            119.             104

cricket_joined %>% filter(Rain == "N")

## # A tibble: 68 x 6
##    CricketNumber  Temp ChirpsPerHour Rain  JumpPerHour PeopleWalkingBy
##            <dbl> <dbl>         <dbl> <chr>       <dbl>           <dbl>
##  1             2  14.3          68.2 N            147.             103
##  2             3  14.4          76.3 N            131.               5
##  3             5  14.6          72.4 N            138.             108
##  4             6  14.7          69.7 N            143.              94
##  5             8  14.9          66.7 N            150.              55
##  6             9  15            79.6 N            126.              79
##  7            11  15.3          74.5 N            134.              88
##  8            13  15.5          75.2 N            133.              69
##  9            14  15.8          75.6 N            132.              24
## 10            15  16            71.6 N            140.              14
## # … with 58 more rows

cricket_joined %>% filter(Temp <= 20 & Rain == "N")

## # A tibble: 48 x 6
##    CricketNumber  Temp ChirpsPerHour Rain  JumpPerHour PeopleWalkingBy
##            <dbl> <dbl>         <dbl> <chr>       <dbl>           <dbl>
##  1             2  14.3          68.2 N            147.             103
##  2             3  14.4          76.3 N            131.               5
##  3             5  14.6          72.4 N            138.             108
##  4             6  14.7          69.7 N            143.              94
##  5             8  14.9          66.7 N            150.              55
##  6             9  15            79.6 N            126.              79
##  7            11  15.3          74.5 N            134.              88
##  8            13  15.5          75.2 N            133.              69
##  9            14  15.8          75.6 N            132.              24
## 10            15  16            71.6 N            140.              14
## # … with 38 more rows

cricket_joined %>% arrange(desc(JumpPerHour))

## # A tibble: 76 x 6
##    CricketNumber  Temp ChirpsPerHour Rain  JumpPerHour PeopleWalkingBy
##            <dbl> <dbl>         <dbl> <chr>       <dbl>           <dbl>
##  1             1  14            64   Y            156.             103
##  2             4  14.5          65.5 Y            153.              54
##  3             8  14.9          66.7 N            150.              55
##  4             2  14.3          68.2 N            147.             103
##  5            17  16.2          68.4 Y            146.               1
##  6            12  15.4          69.4 Y            144.              90
##  7             7  14.8          69.6 Y            144.               5
##  8             6  14.7          69.7 N            143.              94
##  9            10  15.2          71   Y            141.              12
## 10            15  16            71.6 N            140.              14
## # … with 66 more rows

cricket_joined %>% arrange(PeopleWalkingBy)

## # A tibble: 76 x 6
##    CricketNumber  Temp ChirpsPerHour Rain  JumpPerHour PeopleWalkingBy
##            <dbl> <dbl>         <dbl> <chr>       <dbl>           <dbl>
##  1            17  16.2          68.4 Y            146.               1
##  2            39  18.3          84.3 N            119.               1
##  3            42  18.6          88.3 N            113.               4
##  4             3  14.4          76.3 N            131.               5
##  5             7  14.8          69.6 Y            144.               5
##  6            24  16.9          85.1 N            118.               5
##  7            30  17.4          84.3 N            119.               7
##  8            61  20.5          93.4 N            107.               7
##  9            22  16.7          84   N            119.               8
## 10            10  15.2          71   Y            141.              12
## # … with 66 more rows

cricket_joined %>% select(Temp, "ChirpsPerHour", "JumpPerHour")

## # A tibble: 76 x 3
##     Temp ChirpsPerHour JumpPerHour
##    <dbl>         <dbl>       <dbl>
##  1  14            64          156.
##  2  14.3          68.2        147.
##  3  14.4          76.3        131.
##  4  14.5          65.5        153.
##  5  14.6          72.4        138.
##  6  14.7          69.7        143.
##  7  14.8          69.6        144.
##  8  14.9          66.7        150.
##  9  15            79.6        126.
## 10  15.2          71          141.
## # … with 66 more rows

cricket_joined %>% group_by(PeopleWalkingBy)

## # A tibble: 76 x 6
## # Groups:   PeopleWalkingBy [54]
##    CricketNumber  Temp ChirpsPerHour Rain  JumpPerHour PeopleWalkingBy
##            <dbl> <dbl>         <dbl> <chr>       <dbl>           <dbl>
##  1             1  14            64   Y            156.             103
##  2             2  14.3          68.2 N            147.             103
##  3             3  14.4          76.3 N            131.               5
##  4             4  14.5          65.5 Y            153.              54
##  5             5  14.6          72.4 N            138.             108
##  6             6  14.7          69.7 N            143.              94
##  7             7  14.8          69.6 Y            144.               5
##  8             8  14.9          66.7 N            150.              55
##  9             9  15            79.6 N            126.              79
## 10            10  15.2          71   Y            141.              12
## # … with 66 more rows

cricket_joined %>% mutate(Rain2 = recode(Rain, Y = "Yes", N = "No"))

## # A tibble: 76 x 7
##    CricketNumber  Temp ChirpsPerHour Rain  JumpPerHour PeopleWalkingBy Rain2
##            <dbl> <dbl>         <dbl> <chr>       <dbl>           <dbl> <chr>
##  1             1  14            64   Y            156.             103 Yes  
##  2             2  14.3          68.2 N            147.             103 No   
##  3             3  14.4          76.3 N            131.               5 No   
##  4             4  14.5          65.5 Y            153.              54 Yes  
##  5             5  14.6          72.4 N            138.             108 No   
##  6             6  14.7          69.7 N            143.              94 No   
##  7             7  14.8          69.6 Y            144.               5 Yes  
##  8             8  14.9          66.7 N            150.              55 No   
##  9             9  15            79.6 N            126.              79 No   
## 10            10  15.2          71   Y            141.              12 Yes  
## # … with 66 more rows
…
